Functional circuitry/lab1/lab1.sim/sim_1/behav/xsim/simulate.log
Time resolution is 1 ps
Correct: a=0000, b=0000 => sum=0000, c_out=0
Correct: a=0000, b=0001 => sum=0001, c_out=0
Correct: a=0000, b=0010 => sum=0010, c_out=0
Correct: a=0000, b=0011 => sum=0011, c_out=0
Correct: a=0000, b=0100 => sum=0100, c_out=0
Correct: a=0000, b=0101 => sum=0101, c_out=0
Correct: a=0000, b=0110 => sum=0110, c_out=0
Correct: a=0000, b=0111 => sum=0111, c_out=0
Correct: a=0000, b=1000 => sum=1000, c_out=0
Correct: a=0000, b=1001 => sum=1001, c_out=0
Correct: a=0000, b=1010 => sum=1010, c_out=0
Correct: a=0000, b=1011 => sum=1011, c_out=0
Correct: a=0000, b=1100 => sum=1100, c_out=0
Correct: a=0000, b=1101 => sum=1101, c_out=0
Correct: a=0000, b=1110 => sum=1110, c_out=0
Correct: a=0000, b=1111 => sum=1111, c_out=0
Correct: a=0001, b=0000 => sum=0001, c_out=0
Correct: a=0001, b=0001 => sum=0010, c_out=0
Correct: a=0001, b=0010 => sum=0011, c_out=0
Correct: a=0001, b=0011 => sum=0100, c_out=0
Correct: a=0001, b=0100 => sum=0101, c_out=0
Correct: a=0001, b=0101 => sum=0110, c_out=0
Correct: a=0001, b=0110 => sum=0111, c_out=0
Correct: a=0001, b=0111 => sum=1000, c_out=0
Correct: a=0001, b=1000 => sum=1001, c_out=0
Correct: a=0001, b=1001 => sum=1010, c_out=0
Correct: a=0001, b=1010 => sum=1011, c_out=0
Correct: a=0001, b=1011 => sum=1100, c_out=0
Correct: a=0001, b=1100 => sum=1101, c_out=0
Correct: a=0001, b=1101 => sum=1110, c_out=0
Correct: a=0001, b=1110 => sum=1111, c_out=0
Correct: a=0001, b=1111 => sum=0000, c_out=1
Correct: a=0010, b=0000 => sum=0010, c_out=0
Correct: a=0010, b=0001 => sum=0011, c_out=0
Correct: a=0010, b=0010 => sum=0100, c_out=0
Correct: a=0010, b=0011 => sum=0101, c_out=0
Correct: a=0010, b=0100 => sum=0110, c_out=0
Correct: a=0010, b=0101 => sum=0111, c_out=0
Correct: a=0010, b=0110 => sum=1000, c_out=0
Correct: a=0010, b=0111 => sum=1001, c_out=0
Correct: a=0010, b=1000 => sum=1010, c_out=0
Correct: a=0010, b=1001 => sum=1011, c_out=0
Correct: a=0010, b=1010 => sum=1100, c_out=0
Correct: a=0010, b=1011 => sum=1101, c_out=0
Correct: a=0010, b=1100 => sum=1110, c_out=0
Correct: a=0010, b=1101 => sum=1111, c_out=0
Correct: a=0010, b=1110 => sum=0000, c_out=1
Correct: a=0010, b=1111 => sum=0001, c_out=1
Correct: a=0011, b=0000 => sum=0011, c_out=0
Correct: a=0011, b=0001 => sum=0100, c_out=0
Correct: a=0011, b=0010 => sum=0101, c_out=0
Correct: a=0011, b=0011 => sum=0110, c_out=0
Correct: a=0011, b=0100 => sum=0111, c_out=0
Correct: a=0011, b=0101 => sum=1000, c_out=0
Correct: a=0011, b=0110 => sum=1001, c_out=0
Correct: a=0011, b=0111 => sum=1010, c_out=0
Correct: a=0011, b=1000 => sum=1011, c_out=0
Correct: a=0011, b=1001 => sum=1100, c_out=0
Correct: a=0011, b=1010 => sum=1101, c_out=0
Correct: a=0011, b=1011 => sum=1110, c_out=0
Correct: a=0011, b=1100 => sum=1111, c_out=0
Correct: a=0011, b=1101 => sum=0000, c_out=1
Correct: a=0011, b=1110 => sum=0001, c_out=1
Correct: a=0011, b=1111 => sum=0010, c_out=1
Correct: a=0100, b=0000 => sum=0100, c_out=0
Correct: a=0100, b=0001 => sum=0101, c_out=0
Correct: a=0100, b=0010 => sum=0110, c_out=0
Correct: a=0100, b=0011 => sum=0111, c_out=0
Correct: a=0100, b=0100 => sum=1000, c_out=0
Correct: a=0100, b=0101 => sum=1001, c_out=0
Correct: a=0100, b=0110 => sum=1010, c_out=0
Correct: a=0100, b=0111 => sum=1011, c_out=0
Correct: a=0100, b=1000 => sum=1100, c_out=0
Correct: a=0100, b=1001 => sum=1101, c_out=0
Correct: a=0100, b=1010 => sum=1110, c_out=0
Correct: a=0100, b=1011 => sum=1111, c_out=0
Correct: a=0100, b=1100 => sum=0000, c_out=1
Correct: a=0100, b=1101 => sum=0001, c_out=1
Correct: a=0100, b=1110 => sum=0010, c_out=1
Correct: a=0100, b=1111 => sum=0011, c_out=1
Correct: a=0101, b=0000 => sum=0101, c_out=0
Correct: a=0101, b=0001 => sum=0110, c_out=0
Correct: a=0101, b=0010 => sum=0111, c_out=0
Correct: a=0101, b=0011 => sum=1000, c_out=0
Correct: a=0101, b=0100 => sum=1001, c_out=0
Correct: a=0101, b=0101 => sum=1010, c_out=0
Correct: a=0101, b=0110 => sum=1011, c_out=0
Correct: a=0101, b=0111 => sum=1100, c_out=0
Correct: a=0101, b=1000 => sum=1101, c_out=0
Correct: a=0101, b=1001 => sum=1110, c_out=0
Correct: a=0101, b=1010 => sum=1111, c_out=0
Correct: a=0101, b=1011 => sum=0000, c_out=1
Correct: a=0101, b=1100 => sum=0001, c_out=1
Correct: a=0101, b=1101 => sum=0010, c_out=1
Correct: a=0101, b=1110 => sum=0011, c_out=1
Correct: a=0101, b=1111 => sum=0100, c_out=1
Correct: a=0110, b=0000 => sum=0110, c_out=0
Correct: a=0110, b=0001 => sum=0111, c_out=0
Correct: a=0110, b=0010 => sum=1000, c_out=0
Correct: a=0110, b=0011 => sum=1001, c_out=0
